EESchema Schematic File Version 4
EELAYER 30 0
EELAYER END
$Descr A4 11693 8268
encoding utf-8
Sheet 1 1
Title "Auto drainage control"
Date "2020-04-25"
Rev "1.1"
Comp "Matthias Deimbacher"
Comment1 ""
Comment2 ""
Comment3 ""
Comment4 ""
$EndDescr
Wire Notes Line
	5250 500  5250 3250
Text Notes 4650 3200 0    50   ~ 0
Microcontroller
NoConn ~ 1750 2050
NoConn ~ 1750 2150
NoConn ~ 1750 2250
NoConn ~ 1750 2350
NoConn ~ 1750 2450
NoConn ~ 1750 2550
$Comp
L RF_Module:ESP-12F U4
U 1 1 5E0E0A17
P 2350 2050
F 0 "U4" H 2750 2800 50  0000 C CNN
F 1 "ESP-12F" H 2350 2150 50  0000 C CNN
F 2 "RF_Module:ESP-12E" H 2350 2939 50  0001 C CNN
F 3 "http://wiki.ai-thinker.com/_media/esp8266/esp8266_series_modules_user_manual_v1.1.pdf" H 2000 2150 50  0001 C CNN
	1    2350 2050
	1    0    0    -1  
$EndComp
$Comp
L power:+3.3V #PWR08
U 1 1 5E0F6B45
P 1650 850
F 0 "#PWR08" H 1650 700 50  0001 C CNN
F 1 "+3.3V" H 1665 1023 50  0000 C CNN
F 2 "" H 1650 850 50  0001 C CNN
F 3 "" H 1650 850 50  0001 C CNN
	1    1650 850 
	1    0    0    -1  
$EndComp
$Comp
L power:+3.3V #PWR09
U 1 1 5E0F7792
P 2350 850
F 0 "#PWR09" H 2350 700 50  0001 C CNN
F 1 "+3.3V" H 2365 1023 50  0000 C CNN
F 2 "" H 2350 850 50  0001 C CNN
F 3 "" H 2350 850 50  0001 C CNN
	1    2350 850 
	1    0    0    -1  
$EndComp
$Comp
L power:GND #PWR010
U 1 1 5E111D23
P 2350 2850
F 0 "#PWR010" H 2350 2600 50  0001 C CNN
F 1 "GND" H 2355 2677 50  0000 C CNN
F 2 "" H 2350 2850 50  0001 C CNN
F 3 "" H 2350 2850 50  0001 C CNN
	1    2350 2850
	1    0    0    -1  
$EndComp
Wire Wire Line
	2350 850  2350 1250
$Comp
L power:GND #PWR017
U 1 1 5E122A09
P 3750 2850
F 0 "#PWR017" H 3750 2600 50  0001 C CNN
F 1 "GND" H 3755 2677 50  0000 C CNN
F 2 "" H 3750 2850 50  0001 C CNN
F 3 "" H 3750 2850 50  0001 C CNN
	1    3750 2850
	1    0    0    -1  
$EndComp
$Comp
L Device:R R5
U 1 1 5E128691
P 1650 1200
F 0 "R5" H 1720 1246 50  0000 L CNN
F 1 "10k" H 1720 1155 50  0000 L CNN
F 2 "My_Resistor:R_Axial_DIN0204_L3.6mm_D1.6mm_P10.16mm_Horizontal" V 1580 1200 50  0001 C CNN
F 3 "~" H 1650 1200 50  0001 C CNN
	1    1650 1200
	1    0    0    -1  
$EndComp
Wire Wire Line
	1650 1350 1650 1650
Wire Wire Line
	1650 1650 1750 1650
Wire Wire Line
	2350 2850 2350 2750
$Comp
L Jumper:Jumper_3_Bridged12 JP1
U 1 1 5E12EE4E
P 4050 1450
F 0 "JP1" V 4000 1500 50  0000 L CNN
F 1 "Bootmode" V 4100 1500 50  0000 L CNN
F 2 "Connector_PinHeader_2.54mm:PinHeader_1x03_P2.54mm_Vertical" H 4050 1450 50  0001 C CNN
F 3 "~" H 4050 1450 50  0001 C CNN
F 4 "Running" V 3850 1550 50  0000 L CNN "Pin1"
F 5 "Download" V 4250 1550 50  0000 L CNN "Pin3"
	1    4050 1450
	0    1    1    0   
$EndComp
$Comp
L power:GND #PWR019
U 1 1 5E133E08
P 4050 1800
F 0 "#PWR019" H 4050 1550 50  0001 C CNN
F 1 "GND" H 4055 1627 50  0000 C CNN
F 2 "" H 4050 1800 50  0001 C CNN
F 3 "" H 4050 1800 50  0001 C CNN
	1    4050 1800
	1    0    0    -1  
$EndComp
Wire Wire Line
	4050 1700 4050 1800
$Comp
L power:+3.3V #PWR018
U 1 1 5E1353F8
P 4050 850
F 0 "#PWR018" H 4050 700 50  0001 C CNN
F 1 "+3.3V" H 4065 1023 50  0000 C CNN
F 2 "" H 4050 850 50  0001 C CNN
F 3 "" H 4050 850 50  0001 C CNN
	1    4050 850 
	1    0    0    -1  
$EndComp
NoConn ~ 1750 1850
$Comp
L Device:R R10
U 1 1 5E154931
P 3750 2600
F 0 "R10" H 3820 2646 50  0000 L CNN
F 1 "10k" H 3820 2555 50  0000 L CNN
F 2 "My_Resistor:R_Axial_DIN0204_L3.6mm_D1.6mm_P10.16mm_Horizontal" V 3680 2600 50  0001 C CNN
F 3 "~" H 3750 2600 50  0001 C CNN
	1    3750 2600
	1    0    0    -1  
$EndComp
Wire Wire Line
	2950 2350 3750 2350
Wire Wire Line
	3750 2350 3750 2450
Wire Wire Line
	3750 2750 3750 2850
$Comp
L Device:R R9
U 1 1 5E1572CF
P 3600 1450
F 0 "R9" V 3500 1450 50  0000 C CNN
F 1 "10k" V 3600 1450 50  0000 C CNN
F 2 "My_Resistor:R_Axial_DIN0204_L3.6mm_D1.6mm_P10.16mm_Horizontal" V 3530 1450 50  0001 C CNN
F 3 "~" H 3600 1450 50  0001 C CNN
	1    3600 1450
	0    1    1    0   
$EndComp
Wire Wire Line
	2950 1450 3450 1450
Wire Wire Line
	3750 1450 3900 1450
Wire Wire Line
	2950 1650 3000 1650
Text Label 3000 1650 0    50   ~ 0
state_led
Text GLabel 3100 1550 2    50   Output ~ 0
esp_txd
Wire Wire Line
	2950 1550 3100 1550
Wire Wire Line
	2950 1750 3100 1750
Text GLabel 3100 1750 2    50   Input ~ 0
esp_rxd
Wire Wire Line
	4050 850  4050 1200
NoConn ~ 2950 1650
Text GLabel 5750 2300 0    50   Input ~ 0
esp_txd
$Comp
L power:GND #PWR026
U 1 1 5E1DC845
P 9950 2700
F 0 "#PWR026" H 9950 2450 50  0001 C CNN
F 1 "GND" H 9955 2527 50  0000 C CNN
F 2 "" H 9950 2700 50  0001 C CNN
F 3 "" H 9950 2700 50  0001 C CNN
	1    9950 2700
	1    0    0    -1  
$EndComp
$Comp
L Connector:Conn_01x04_Male J2
U 1 1 5E1CC416
P 8000 800
F 0 "J2" V 8050 500 50  0000 R CNN
F 1 "ESP Debug" V 8150 500 50  0000 R CNN
F 2 "Connector_PinHeader_2.54mm:PinHeader_1x04_P2.54mm_Vertical" H 8000 800 50  0001 C CNN
F 3 "~" H 8000 800 50  0001 C CNN
F 4 "VCC" H 7950 900 50  0000 R CNN "Pin1"
F 5 "TXD" H 7950 800 50  0000 R CNN "Pin2"
F 6 "GND" H 7950 700 50  0000 R CNN "Pin3"
F 7 "RXD" H 7950 600 50  0000 R CNN "Pin4"
	1    8000 800 
	0    -1   1    0   
$EndComp
Text GLabel 10750 2200 2    50   Output ~ 0
esp_rxd
$Comp
L Device:R R16
U 1 1 5E1E3CF3
P 8200 1850
F 0 "R16" H 8270 1896 50  0000 L CNN
F 1 "2.2k" H 8270 1805 50  0000 L CNN
F 2 "My_Resistor:R_Axial_DIN0204_L3.6mm_D1.6mm_P10.16mm_Horizontal" V 8130 1850 50  0001 C CNN
F 3 "~" H 8200 1850 50  0001 C CNN
	1    8200 1850
	1    0    0    -1  
$EndComp
$Comp
L power:+3.3V #PWR025
U 1 1 5E1EA3CA
P 9900 1600
F 0 "#PWR025" H 9900 1450 50  0001 C CNN
F 1 "+3.3V" H 9915 1773 50  0000 C CNN
F 2 "" H 9900 1600 50  0001 C CNN
F 3 "" H 9900 1600 50  0001 C CNN
	1    9900 1600
	1    0    0    -1  
$EndComp
$Comp
L Device:R R14
U 1 1 5E20624D
P 6050 2300
F 0 "R14" V 5950 2300 50  0000 C CNN
F 1 "2.2k" V 6050 2300 50  0000 C CNN
F 2 "My_Resistor:R_Axial_DIN0204_L3.6mm_D1.6mm_P10.16mm_Horizontal" V 5980 2300 50  0001 C CNN
F 3 "~" H 6050 2300 50  0001 C CNN
	1    6050 2300
	0    1    1    0   
$EndComp
Wire Wire Line
	5900 2300 5750 2300
$Comp
L power:+3.3V #PWR022
U 1 1 5E2536FB
P 6100 1700
F 0 "#PWR022" H 6100 1550 50  0001 C CNN
F 1 "+3.3V" H 6115 1873 50  0000 C CNN
F 2 "" H 6100 1700 50  0001 C CNN
F 3 "" H 6100 1700 50  0001 C CNN
	1    6100 1700
	1    0    0    -1  
$EndComp
Wire Wire Line
	8750 1550 7900 1550
Wire Wire Line
	8200 1700 8200 1000
Wire Wire Line
	8200 2000 8200 2100
Wire Notes Line
	500  3250 11200 3250
Text Notes 10350 3200 0    50   ~ 0
ESP debug interface
Wire Wire Line
	7900 1000 7900 1100
Connection ~ 7550 2400
Connection ~ 7900 1450
Wire Wire Line
	7900 1450 7900 1550
$Comp
L power:PWR_FLAG #FLG04
U 1 1 5E2E4C44
P 7400 1250
F 0 "#FLG04" H 7400 1325 50  0001 C CNN
F 1 "PWR_FLAG" V 7400 1377 50  0000 L CNN
F 2 "" H 7400 1250 50  0001 C CNN
F 3 "~" H 7400 1250 50  0001 C CNN
	1    7400 1250
	0    -1   -1   0   
$EndComp
$Comp
L power:PWR_FLAG #FLG03
U 1 1 5E2EDEDA
P 7400 1100
F 0 "#FLG03" H 7400 1175 50  0001 C CNN
F 1 "PWR_FLAG" V 7400 1227 50  0000 L CNN
F 2 "" H 7400 1100 50  0001 C CNN
F 3 "~" H 7400 1100 50  0001 C CNN
	1    7400 1100
	0    -1   -1   0   
$EndComp
Wire Wire Line
	7400 1100 7900 1100
Connection ~ 7900 1100
Wire Wire Line
	7900 1100 7900 1450
$Comp
L power:+5V #PWR027
U 1 1 5E3217D4
P 9950 4000
F 0 "#PWR027" H 9950 3850 50  0001 C CNN
F 1 "+5V" H 9965 4173 50  0000 C CNN
F 2 "" H 9950 4000 50  0001 C CNN
F 3 "" H 9950 4000 50  0001 C CNN
	1    9950 4000
	1    0    0    -1  
$EndComp
$Comp
L power:GND #PWR024
U 1 1 5E322C8B
P 9150 5500
F 0 "#PWR024" H 9150 5250 50  0001 C CNN
F 1 "GND" H 9155 5327 50  0000 C CNN
F 2 "" H 9150 5500 50  0001 C CNN
F 3 "" H 9150 5500 50  0001 C CNN
	1    9150 5500
	1    0    0    -1  
$EndComp
$Comp
L Connector:Conn_01x04_Male J4
U 1 1 5E34457E
P 10150 5700
F 0 "J4" V 10300 5400 50  0000 R CNN
F 1 "DCDC Converter" V 10200 5400 50  0000 R CNN
F 2 "Converter_DCDC:Converter_DCDC_RECOM_R-78S-0.1_THT" H 10150 5700 50  0001 C CNN
F 3 "~" H 10150 5700 50  0001 C CNN
F 4 "EN" H 10100 5800 50  0000 R CNN "Pin1"
F 5 "IN+" H 10100 5700 50  0000 R CNN "Pin2"
F 6 "GND" H 10100 5600 50  0000 R CNN "Pin3"
F 7 "VO+" H 10100 5500 50  0000 R CNN "Pin4"
	1    10150 5700
	0    -1   -1   0   
$EndComp
Wire Wire Line
	9150 5300 9550 5300
Wire Wire Line
	10250 5300 10250 5500
Connection ~ 9150 5300
Wire Wire Line
	9950 4650 10150 4650
Wire Wire Line
	10150 4650 10150 5500
$Comp
L power:+3.3V #PWR028
U 1 1 5E34A38C
P 10350 4000
F 0 "#PWR028" H 10350 3850 50  0001 C CNN
F 1 "+3.3V" H 10365 4173 50  0000 C CNN
F 2 "" H 10350 4000 50  0001 C CNN
F 3 "" H 10350 4000 50  0001 C CNN
	1    10350 4000
	1    0    0    -1  
$EndComp
NoConn ~ 10050 5500
Wire Wire Line
	10350 4000 10350 4200
Wire Wire Line
	10500 4200 10350 4200
$Comp
L power:PWR_FLAG #FLG07
U 1 1 5E34E31C
P 10500 4200
F 0 "#FLG07" H 10500 4275 50  0001 C CNN
F 1 "PWR_FLAG" V 10500 4328 50  0000 L CNN
F 2 "" H 10500 4200 50  0001 C CNN
F 3 "~" H 10500 4200 50  0001 C CNN
	1    10500 4200
	0    1    1    0   
$EndComp
Wire Wire Line
	9150 5300 9150 5500
Wire Notes Line
	8400 3250 8400 6500
Text Notes 10650 6450 0    50   ~ 0
Power supply
$Comp
L Diode:1N4148 D10
U 1 1 5E3B2CAE
P 8500 2100
F 0 "D10" H 8500 2000 50  0000 C CNN
F 1 "1N4148" H 8500 2200 50  0000 C CNN
F 2 "Diode_THT:D_DO-35_SOD27_P7.62mm_Horizontal" H 8500 1925 50  0001 C CNN
F 3 "https://assets.nexperia.com/documents/data-sheet/1N4148_1N4448.pdf" H 8500 2100 50  0001 C CNN
	1    8500 2100
	-1   0    0    1   
$EndComp
Wire Wire Line
	8200 2100 8350 2100
Wire Wire Line
	8650 2100 8750 2100
Wire Wire Line
	8750 2100 8750 1550
$Comp
L power:GND #PWR012
U 1 1 5E431D72
P 2850 4500
F 0 "#PWR012" H 2850 4250 50  0001 C CNN
F 1 "GND" H 2855 4327 50  0000 C CNN
F 2 "" H 2850 4500 50  0001 C CNN
F 3 "" H 2850 4500 50  0001 C CNN
	1    2850 4500
	1    0    0    -1  
$EndComp
Wire Wire Line
	3250 3950 3150 3950
Wire Wire Line
	2850 3950 2850 4400
$Comp
L power:+5V #PWR011
U 1 1 5E43EA20
P 2850 3550
F 0 "#PWR011" H 2850 3400 50  0001 C CNN
F 1 "+5V" H 2865 3723 50  0000 C CNN
F 2 "" H 2850 3550 50  0001 C CNN
F 3 "" H 2850 3550 50  0001 C CNN
	1    2850 3550
	1    0    0    -1  
$EndComp
Wire Wire Line
	2850 3750 3250 3750
$Comp
L Diode:1N4148 D2
U 1 1 5E44E168
P 2300 3850
F 0 "D2" V 2250 3750 50  0000 C CNN
F 1 "1N4148" V 2350 3650 50  0000 C CNN
F 2 "Diode_THT:D_DO-35_SOD27_P7.62mm_Horizontal" H 2300 3675 50  0001 C CNN
F 3 "https://assets.nexperia.com/documents/data-sheet/1N4148_1N4448.pdf" H 2300 3850 50  0001 C CNN
	1    2300 3850
	0    -1   1    0   
$EndComp
Wire Wire Line
	2850 3550 2850 3650
Wire Wire Line
	2100 3750 2100 3650
Connection ~ 2850 3650
Wire Wire Line
	2850 3650 2850 3750
Wire Wire Line
	2100 3950 2100 4150
Wire Wire Line
	2750 4150 2750 3850
Wire Wire Line
	2750 3850 3250 3850
$Comp
L Device:R R6
U 1 1 5E46992D
P 2550 4150
F 0 "R6" V 2450 4150 50  0000 C CNN
F 1 "470" V 2550 4150 50  0000 C CNN
F 2 "My_Resistor:R_Axial_DIN0204_L3.6mm_D1.6mm_P10.16mm_Horizontal" V 2480 4150 50  0001 C CNN
F 3 "~" H 2550 4150 50  0001 C CNN
	1    2550 4150
	0    1    1    0   
$EndComp
Wire Wire Line
	2100 4150 2200 4150
Wire Wire Line
	2700 4150 2750 4150
Wire Wire Line
	2100 3650 2300 3650
Wire Wire Line
	2300 3700 2300 3650
Connection ~ 2300 3650
Wire Wire Line
	2300 3650 2850 3650
Wire Wire Line
	2300 4000 2300 4150
Connection ~ 2300 4150
Wire Wire Line
	2300 4150 2400 4150
Wire Wire Line
	3250 4050 3150 4050
Wire Wire Line
	3150 4050 3150 3950
Connection ~ 3150 3950
Wire Wire Line
	3150 3950 2850 3950
Text GLabel 3100 2050 2    50   Input ~ 0
water_level_1
Text GLabel 1050 3950 0    50   Output ~ 0
water_level_1
$Comp
L power:GND #PWR03
U 1 1 5E4BB942
P 1350 4450
F 0 "#PWR03" H 1350 4200 50  0001 C CNN
F 1 "GND" H 1350 4300 50  0000 C CNN
F 2 "" H 1350 4450 50  0001 C CNN
F 3 "" H 1350 4450 50  0001 C CNN
	1    1350 4450
	1    0    0    -1  
$EndComp
$Comp
L Device:R R2
U 1 1 5E4C0E57
P 1350 4150
F 0 "R2" H 1420 4196 50  0000 L CNN
F 1 "100k" H 1420 4105 50  0000 L CNN
F 2 "My_Resistor:R_Axial_DIN0204_L3.6mm_D1.6mm_P10.16mm_Horizontal" V 1280 4150 50  0001 C CNN
F 3 "~" H 1350 4150 50  0001 C CNN
	1    1350 4150
	1    0    0    -1  
$EndComp
Wire Wire Line
	1500 3950 1350 3950
Wire Wire Line
	1350 3950 1350 4000
Wire Wire Line
	1350 4300 1350 4400
$Comp
L power:+3.3V #PWR02
U 1 1 5E4CB539
P 1350 3550
F 0 "#PWR02" H 1350 3400 50  0001 C CNN
F 1 "+3.3V" H 1365 3723 50  0000 C CNN
F 2 "" H 1350 3550 50  0001 C CNN
F 3 "" H 1350 3550 50  0001 C CNN
	1    1350 3550
	1    0    0    -1  
$EndComp
Wire Wire Line
	1350 3550 1350 3750
Wire Wire Line
	1350 3750 1500 3750
Connection ~ 1350 3950
Wire Wire Line
	2950 1850 3100 1850
$Comp
L power:GND #PWR014
U 1 1 5E53651B
P 2850 6000
F 0 "#PWR014" H 2850 5750 50  0001 C CNN
F 1 "GND" H 2855 5827 50  0000 C CNN
F 2 "" H 2850 6000 50  0001 C CNN
F 3 "" H 2850 6000 50  0001 C CNN
	1    2850 6000
	1    0    0    -1  
$EndComp
$Comp
L Connector:Conn_01x04_Male Water2
U 1 1 5E536525
P 3450 5350
F 0 "Water2" H 3550 5600 50  0000 C CNN
F 1 "XKC-Y25-V" H 3550 5050 50  0000 C CNN
F 2 "Connector_JST:JST_XH_S4B-XH-A_1x04_P2.50mm_Horizontal" H 3450 5350 50  0001 C CNN
F 3 "~" H 3450 5350 50  0001 C CNN
F 4 "VCC" H 3300 5450 50  0000 C CNN "Pin1"
F 5 "OUT" H 3300 5350 50  0000 C CNN "Pin2"
F 6 "GND" H 3300 5250 50  0000 C CNN "Pin3"
F 7 "Mode" H 3300 5150 50  0000 C CNN "Pin4"
	1    3450 5350
	-1   0    0    -1  
$EndComp
Wire Wire Line
	3250 5450 3150 5450
Wire Wire Line
	2850 5450 2850 5900
$Comp
L power:+5V #PWR013
U 1 1 5E53652D
P 2850 5050
F 0 "#PWR013" H 2850 4900 50  0001 C CNN
F 1 "+5V" H 2865 5223 50  0000 C CNN
F 2 "" H 2850 5050 50  0001 C CNN
F 3 "" H 2850 5050 50  0001 C CNN
	1    2850 5050
	1    0    0    -1  
$EndComp
Wire Wire Line
	2850 5250 3250 5250
$Comp
L Diode:1N4148 D3
U 1 1 5E536534
P 2300 5350
F 0 "D3" V 2250 5250 50  0000 C CNN
F 1 "1N4148" V 2350 5150 50  0000 C CNN
F 2 "Diode_THT:D_DO-35_SOD27_P7.62mm_Horizontal" H 2300 5175 50  0001 C CNN
F 3 "https://assets.nexperia.com/documents/data-sheet/1N4148_1N4448.pdf" H 2300 5350 50  0001 C CNN
	1    2300 5350
	0    -1   1    0   
$EndComp
Wire Wire Line
	2850 5050 2850 5150
Wire Wire Line
	2100 5250 2100 5150
Connection ~ 2850 5150
Wire Wire Line
	2850 5150 2850 5250
Wire Wire Line
	2100 5450 2100 5650
Wire Wire Line
	2750 5650 2750 5350
Wire Wire Line
	2750 5350 3250 5350
$Comp
L Device:R R7
U 1 1 5E536541
P 2550 5650
F 0 "R7" V 2450 5650 50  0000 C CNN
F 1 "470" V 2550 5650 50  0000 C CNN
F 2 "My_Resistor:R_Axial_DIN0204_L3.6mm_D1.6mm_P10.16mm_Horizontal" V 2480 5650 50  0001 C CNN
F 3 "~" H 2550 5650 50  0001 C CNN
	1    2550 5650
	0    1    1    0   
$EndComp
Wire Wire Line
	2100 5650 2200 5650
Wire Wire Line
	2700 5650 2750 5650
Wire Wire Line
	2100 5150 2300 5150
Wire Wire Line
	2300 5200 2300 5150
Connection ~ 2300 5150
Wire Wire Line
	2300 5150 2850 5150
Wire Wire Line
	2300 5500 2300 5650
Connection ~ 2300 5650
Wire Wire Line
	2300 5650 2400 5650
Wire Wire Line
	3250 5550 3150 5550
Wire Wire Line
	3150 5550 3150 5450
Connection ~ 3150 5450
Wire Wire Line
	3150 5450 2850 5450
Text GLabel 1050 5450 0    50   Output ~ 0
water_level_2
$Comp
L power:GND #PWR05
U 1 1 5E536555
P 1350 5950
F 0 "#PWR05" H 1350 5700 50  0001 C CNN
F 1 "GND" H 1350 5800 50  0000 C CNN
F 2 "" H 1350 5950 50  0001 C CNN
F 3 "" H 1350 5950 50  0001 C CNN
	1    1350 5950
	1    0    0    -1  
$EndComp
$Comp
L Device:R R3
U 1 1 5E53655B
P 1350 5650
F 0 "R3" H 1420 5696 50  0000 L CNN
F 1 "100k" H 1420 5605 50  0000 L CNN
F 2 "My_Resistor:R_Axial_DIN0204_L3.6mm_D1.6mm_P10.16mm_Horizontal" V 1280 5650 50  0001 C CNN
F 3 "~" H 1350 5650 50  0001 C CNN
	1    1350 5650
	1    0    0    -1  
$EndComp
Wire Wire Line
	1500 5450 1350 5450
Wire Wire Line
	1350 5450 1350 5500
Wire Wire Line
	1350 5800 1350 5900
$Comp
L power:+3.3V #PWR04
U 1 1 5E536564
P 1350 5050
F 0 "#PWR04" H 1350 4900 50  0001 C CNN
F 1 "+3.3V" H 1365 5223 50  0000 C CNN
F 2 "" H 1350 5050 50  0001 C CNN
F 3 "" H 1350 5050 50  0001 C CNN
	1    1350 5050
	1    0    0    -1  
$EndComp
Wire Wire Line
	1350 5050 1350 5250
Wire Wire Line
	1350 5250 1500 5250
Wire Wire Line
	1350 5450 1150 5450
Connection ~ 1350 5450
$Comp
L power:GND #PWR016
U 1 1 5E53F06C
P 2850 7500
F 0 "#PWR016" H 2850 7250 50  0001 C CNN
F 1 "GND" H 2855 7327 50  0000 C CNN
F 2 "" H 2850 7500 50  0001 C CNN
F 3 "" H 2850 7500 50  0001 C CNN
	1    2850 7500
	1    0    0    -1  
$EndComp
$Comp
L Connector:Conn_01x04_Male Water3
U 1 1 5E53F076
P 3450 6850
F 0 "Water3" H 3550 7100 50  0000 C CNN
F 1 "XKC-Y25-V" H 3500 6550 50  0000 C CNN
F 2 "Connector_JST:JST_XH_S4B-XH-A_1x04_P2.50mm_Horizontal" H 3450 6850 50  0001 C CNN
F 3 "~" H 3450 6850 50  0001 C CNN
F 4 "VCC" H 3300 6950 50  0000 C CNN "Pin1"
F 5 "OUT" H 3300 6850 50  0000 C CNN "Pin2"
F 6 "GND" H 3300 6750 50  0000 C CNN "Pin3"
F 7 "Mode" H 3300 6650 50  0000 C CNN "Pin4"
	1    3450 6850
	-1   0    0    -1  
$EndComp
Wire Wire Line
	3250 6950 3150 6950
Wire Wire Line
	2850 6950 2850 7400
$Comp
L power:+5V #PWR015
U 1 1 5E53F07E
P 2850 6550
F 0 "#PWR015" H 2850 6400 50  0001 C CNN
F 1 "+5V" H 2865 6723 50  0000 C CNN
F 2 "" H 2850 6550 50  0001 C CNN
F 3 "" H 2850 6550 50  0001 C CNN
	1    2850 6550
	1    0    0    -1  
$EndComp
Wire Wire Line
	2850 6750 3250 6750
$Comp
L Diode:1N4148 D4
U 1 1 5E53F085
P 2300 6850
F 0 "D4" V 2250 6750 50  0000 C CNN
F 1 "1N4148" V 2350 6650 50  0000 C CNN
F 2 "Diode_THT:D_DO-35_SOD27_P7.62mm_Horizontal" H 2300 6675 50  0001 C CNN
F 3 "https://assets.nexperia.com/documents/data-sheet/1N4148_1N4448.pdf" H 2300 6850 50  0001 C CNN
	1    2300 6850
	0    -1   1    0   
$EndComp
Wire Wire Line
	2850 6550 2850 6650
Wire Wire Line
	2100 6750 2100 6650
Connection ~ 2850 6650
Wire Wire Line
	2850 6650 2850 6750
Wire Wire Line
	2100 6950 2100 7150
Wire Wire Line
	2750 7150 2750 6850
Wire Wire Line
	2750 6850 3250 6850
$Comp
L Device:R R8
U 1 1 5E53F092
P 2550 7150
F 0 "R8" V 2450 7150 50  0000 C CNN
F 1 "470" V 2550 7150 50  0000 C CNN
F 2 "My_Resistor:R_Axial_DIN0204_L3.6mm_D1.6mm_P10.16mm_Horizontal" V 2480 7150 50  0001 C CNN
F 3 "~" H 2550 7150 50  0001 C CNN
	1    2550 7150
	0    1    1    0   
$EndComp
Wire Wire Line
	2100 7150 2200 7150
Wire Wire Line
	2700 7150 2750 7150
Wire Wire Line
	2100 6650 2300 6650
Wire Wire Line
	2300 6700 2300 6650
Connection ~ 2300 6650
Wire Wire Line
	2300 6650 2850 6650
Wire Wire Line
	2300 7000 2300 7150
Connection ~ 2300 7150
Wire Wire Line
	2300 7150 2400 7150
Wire Wire Line
	3250 7050 3150 7050
Wire Wire Line
	3150 7050 3150 6950
Connection ~ 3150 6950
Wire Wire Line
	3150 6950 2850 6950
Text GLabel 1050 6950 0    50   Output ~ 0
water_level_3
$Comp
L power:GND #PWR07
U 1 1 5E53F0A6
P 1350 7450
F 0 "#PWR07" H 1350 7200 50  0001 C CNN
F 1 "GND" H 1350 7300 50  0000 C CNN
F 2 "" H 1350 7450 50  0001 C CNN
F 3 "" H 1350 7450 50  0001 C CNN
	1    1350 7450
	1    0    0    -1  
$EndComp
$Comp
L Device:R R4
U 1 1 5E53F0AC
P 1350 7150
F 0 "R4" H 1420 7196 50  0000 L CNN
F 1 "100k" H 1420 7105 50  0000 L CNN
F 2 "My_Resistor:R_Axial_DIN0204_L3.6mm_D1.6mm_P10.16mm_Horizontal" V 1280 7150 50  0001 C CNN
F 3 "~" H 1350 7150 50  0001 C CNN
	1    1350 7150
	1    0    0    -1  
$EndComp
Wire Wire Line
	1500 6950 1350 6950
Wire Wire Line
	1350 6950 1350 7000
Wire Wire Line
	1350 7300 1350 7400
$Comp
L power:+3.3V #PWR06
U 1 1 5E53F0B5
P 1350 6550
F 0 "#PWR06" H 1350 6400 50  0001 C CNN
F 1 "+3.3V" H 1365 6723 50  0000 C CNN
F 2 "" H 1350 6550 50  0001 C CNN
F 3 "" H 1350 6550 50  0001 C CNN
	1    1350 6550
	1    0    0    -1  
$EndComp
Wire Wire Line
	1350 6550 1350 6750
Wire Wire Line
	1350 6750 1500 6750
Wire Wire Line
	1350 6950 1150 6950
Connection ~ 1350 6950
Text GLabel 3100 2250 2    50   Input ~ 0
water_level_2
Text GLabel 3100 2450 2    50   Input ~ 0
water_level_3
Wire Wire Line
	2950 1950 3100 1950
Wire Wire Line
	2950 2050 3100 2050
Wire Notes Line
	3800 7800 3800 3250
Text Notes 3000 7750 0    50   ~ 0
Water level sensors
Wire Wire Line
	2700 4400 2850 4400
Connection ~ 2850 4400
Wire Wire Line
	2850 4400 2850 4500
Wire Wire Line
	2400 4400 2200 4400
Wire Wire Line
	2200 4400 2200 4150
Connection ~ 2200 4150
Wire Wire Line
	2200 4150 2300 4150
Wire Wire Line
	2700 5900 2850 5900
Connection ~ 2850 5900
Wire Wire Line
	2850 5900 2850 6000
Wire Wire Line
	2400 5900 2200 5900
Wire Wire Line
	2200 5900 2200 5650
Connection ~ 2200 5650
Wire Wire Line
	2200 5650 2300 5650
Wire Wire Line
	2700 7400 2850 7400
Connection ~ 2850 7400
Wire Wire Line
	2850 7400 2850 7500
Wire Wire Line
	2400 7400 2200 7400
Wire Wire Line
	2200 7400 2200 7150
Connection ~ 2200 7150
Wire Wire Line
	2200 7150 2300 7150
$Comp
L Device:C C8
U 1 1 5E26FD09
P 7550 1650
F 0 "C8" H 7435 1741 50  0000 R CNN
F 1 "100n" H 7435 1650 50  0000 R CNN
F 2 "Capacitor_THT:C_Disc_D4.3mm_W1.9mm_P5.00mm" H 7588 1500 50  0001 C CNN
F 3 "~" H 7550 1650 50  0001 C CNN
F 4 "Place next to Pin 8&5" H 8200 1900 50  0000 R CNN "Place_hint"
	1    7550 1650
	-1   0    0    -1  
$EndComp
Wire Wire Line
	7550 1800 7550 2400
Wire Wire Line
	7400 1450 7550 1450
Wire Wire Line
	7550 1500 7550 1450
Connection ~ 7550 1450
Wire Wire Line
	7550 1450 7900 1450
Wire Wire Line
	1000 1450 1250 1450
Wire Wire Line
	1000 1500 1000 1450
$Comp
L power:GND #PWR01
U 1 1 5E111430
P 1000 2200
F 0 "#PWR01" H 1000 1950 50  0001 C CNN
F 1 "GND" H 1005 2027 50  0000 C CNN
F 2 "" H 1000 2200 50  0001 C CNN
F 3 "" H 1000 2200 50  0001 C CNN
	1    1000 2200
	1    0    0    -1  
$EndComp
$Comp
L Switch:SW_Push SW1
U 1 1 5E10A081
P 1000 1700
F 0 "SW1" V 1050 2000 50  0000 R CNN
F 1 "Reset" V 950 1950 50  0000 C CNN
F 2 "My_Switch:Eledis_Push_Btn" H 1000 1900 50  0001 C CNN
F 3 "~" H 1000 1900 50  0001 C CNN
	1    1000 1700
	0    -1   -1   0   
$EndComp
$Comp
L Device:R R1
U 1 1 5E11B7F5
P 1250 1200
F 0 "R1" H 1320 1246 50  0000 L CNN
F 1 "10k" H 1320 1155 50  0000 L CNN
F 2 "My_Resistor:R_Axial_DIN0204_L3.6mm_D1.6mm_P10.16mm_Horizontal" V 1180 1200 50  0001 C CNN
F 3 "~" H 1250 1200 50  0001 C CNN
	1    1250 1200
	1    0    0    -1  
$EndComp
$Comp
L Device:C C4
U 1 1 5E964DE6
P 1350 1700
F 0 "C4" H 1465 1746 50  0000 L CNN
F 1 "10u" H 1465 1655 50  0000 L CNN
F 2 "Capacitor_THT:C_Rect_L7.0mm_W6.0mm_P5.00mm" H 1388 1550 50  0001 C CNN
F 3 "~" H 1350 1700 50  0001 C CNN
	1    1350 1700
	1    0    0    -1  
$EndComp
Wire Wire Line
	1350 1550 1350 1450
Connection ~ 1350 1450
Wire Wire Line
	1350 1450 1750 1450
Wire Wire Line
	1350 1850 1350 2050
Wire Wire Line
	1350 2050 1000 2050
Connection ~ 1000 2050
Wire Wire Line
	1000 2050 1000 2200
Wire Wire Line
	1000 1900 1000 2050
Wire Wire Line
	9950 4650 9950 4200
$Comp
L Diode:1N4148 D1
U 1 1 5EA231E4
P 1000 1200
F 0 "D1" V 950 1050 50  0000 L CNN
F 1 "1N4148" V 1050 850 50  0000 L CNN
F 2 "Diode_THT:D_DO-35_SOD27_P7.62mm_Horizontal" H 1000 1025 50  0001 C CNN
F 3 "https://assets.nexperia.com/documents/data-sheet/1N4148_1N4448.pdf" H 1000 1200 50  0001 C CNN
	1    1000 1200
	0    1    1    0   
$EndComp
Wire Wire Line
	1650 850  1650 950 
Wire Wire Line
	1250 1050 1250 950 
Wire Wire Line
	1250 950  1650 950 
Connection ~ 1650 950 
Wire Wire Line
	1650 950  1650 1050
Wire Wire Line
	1250 950  1000 950 
Wire Wire Line
	1000 950  1000 1050
Connection ~ 1250 950 
Wire Wire Line
	1000 1350 1000 1450
Connection ~ 1000 1450
Wire Wire Line
	1250 1350 1250 1450
Connection ~ 1250 1450
Wire Wire Line
	1250 1450 1350 1450
$Comp
L Device:C C7
U 1 1 5EB03807
P 2550 7400
F 0 "C7" V 2450 7300 50  0000 C CNN
F 1 "2.2u" V 2700 7400 50  0000 C CNN
F 2 "Capacitor_THT:C_Rect_L7.0mm_W4.5mm_P5.00mm" H 2588 7250 50  0001 C CNN
F 3 "~" H 2550 7400 50  0001 C CNN
	1    2550 7400
	0    1    1    0   
$EndComp
$Comp
L Device:C C6
U 1 1 5EB0753E
P 2550 5900
F 0 "C6" V 2450 5800 50  0000 C CNN
F 1 "2.2u" V 2700 5900 50  0000 C CNN
F 2 "Capacitor_THT:C_Rect_L7.0mm_W4.5mm_P5.00mm" H 2588 5750 50  0001 C CNN
F 3 "~" H 2550 5900 50  0001 C CNN
	1    2550 5900
	0    1    1    0   
$EndComp
$Comp
L Device:C C5
U 1 1 5EB08E94
P 2550 4400
F 0 "C5" V 2450 4300 50  0000 C CNN
F 1 "2.2u" V 2700 4400 50  0000 C CNN
F 2 "Capacitor_THT:C_Rect_L7.0mm_W4.5mm_P5.00mm" H 2588 4250 50  0001 C CNN
F 3 "~" H 2550 4400 50  0001 C CNN
	1    2550 4400
	0    1    1    0   
$EndComp
$Comp
L Device:C C1
U 1 1 5EB30A31
P 1150 4150
F 0 "C1" H 950 4200 50  0000 L CNN
F 1 "100n" H 850 4100 50  0000 L CNN
F 2 "Capacitor_THT:C_Disc_D4.3mm_W1.9mm_P5.00mm" H 1188 4000 50  0001 C CNN
F 3 "~" H 1150 4150 50  0001 C CNN
	1    1150 4150
	1    0    0    -1  
$EndComp
Wire Wire Line
	1350 3950 1150 3950
Wire Wire Line
	1150 4000 1150 3950
Connection ~ 1150 3950
Wire Wire Line
	1150 3950 1050 3950
Wire Wire Line
	1150 4300 1150 4400
Wire Wire Line
	1150 4400 1350 4400
Connection ~ 1350 4400
Wire Wire Line
	1350 4400 1350 4450
$Comp
L Device:C C2
U 1 1 5EB92C2B
P 1150 5650
F 0 "C2" H 950 5700 50  0000 L CNN
F 1 "100n" H 850 5600 50  0000 L CNN
F 2 "Capacitor_THT:C_Disc_D4.3mm_W1.9mm_P5.00mm" H 1188 5500 50  0001 C CNN
F 3 "~" H 1150 5650 50  0001 C CNN
	1    1150 5650
	1    0    0    -1  
$EndComp
$Comp
L Device:C C3
U 1 1 5EB93380
P 1150 7150
F 0 "C3" H 950 7200 50  0000 L CNN
F 1 "100n" H 850 7100 50  0000 L CNN
F 2 "Capacitor_THT:C_Disc_D4.3mm_W1.9mm_P5.00mm" H 1188 7000 50  0001 C CNN
F 3 "~" H 1150 7150 50  0001 C CNN
	1    1150 7150
	1    0    0    -1  
$EndComp
Wire Wire Line
	1150 5500 1150 5450
Connection ~ 1150 5450
Wire Wire Line
	1150 5450 1050 5450
Wire Wire Line
	1150 5800 1150 5900
Wire Wire Line
	1150 5900 1350 5900
Connection ~ 1350 5900
Wire Wire Line
	1350 5900 1350 5950
Wire Wire Line
	1150 7000 1150 6950
Connection ~ 1150 6950
Wire Wire Line
	1150 6950 1050 6950
Wire Wire Line
	1150 7300 1150 7400
Wire Wire Line
	1150 7400 1350 7400
Connection ~ 1350 7400
Wire Wire Line
	1350 7400 1350 7450
$Comp
L Device:R R17
U 1 1 5E263EEA
P 10100 1950
F 0 "R17" H 10170 1996 50  0000 L CNN
F 1 "4.7k" H 10170 1905 50  0000 L CNN
F 2 "My_Resistor:R_Axial_DIN0204_L3.6mm_D1.6mm_P10.16mm_Horizontal" V 10030 1950 50  0001 C CNN
F 3 "~" H 10100 1950 50  0001 C CNN
	1    10100 1950
	1    0    0    -1  
$EndComp
$Comp
L Device:R R11
U 1 1 5E2348B6
P 4450 5700
F 0 "R11" V 4243 5700 50  0000 C CNN
F 1 "22k" V 4334 5700 50  0000 C CNN
F 2 "My_Resistor:R_Axial_DIN0204_L3.6mm_D1.6mm_P10.16mm_Horizontal" V 4380 5700 50  0001 C CNN
F 3 "~" H 4450 5700 50  0001 C CNN
	1    4450 5700
	0    1    1    0   
$EndComp
$Comp
L power:+3.3V #PWR020
U 1 1 5E23A4D2
P 5050 4800
F 0 "#PWR020" H 5050 4650 50  0001 C CNN
F 1 "+3.3V" H 5065 4973 50  0000 C CNN
F 2 "" H 5050 4800 50  0001 C CNN
F 3 "" H 5050 4800 50  0001 C CNN
	1    5050 4800
	1    0    0    -1  
$EndComp
Wire Wire Line
	5150 5150 5050 5150
Wire Wire Line
	5050 5150 5050 4800
Text GLabel 3100 2150 2    50   Output ~ 0
pump
Wire Wire Line
	2950 2150 3100 2150
Text GLabel 4200 5700 0    50   Input ~ 0
pump
Wire Wire Line
	4200 5700 4300 5700
$Comp
L power:GND #PWR021
U 1 1 5E2BD209
P 5050 6200
F 0 "#PWR021" H 5050 5950 50  0001 C CNN
F 1 "GND" H 5055 6027 50  0000 C CNN
F 2 "" H 5050 6200 50  0001 C CNN
F 3 "" H 5050 6200 50  0001 C CNN
	1    5050 6200
	1    0    0    -1  
$EndComp
$Comp
L Relay:DIPxx-1Axx-11x K1
U 1 1 5E3DA710
P 7400 4650
F 0 "K1" H 7730 4696 50  0000 L CNN
F 1 "RF334012" H 7730 4605 50  0000 L CNN
F 2 "My_Relay:RF334012_vertical" H 7750 4600 50  0001 L CNN
F 3 "https://asset.conrad.com/media10/add/160267/c1/-/de/000504448DS01/datenblatt-504448-te-connectivity-rf334012wg-printrelais-12-vdc-16-a-1-schliesser-1-st.pdf" H 7400 4650 50  0001 C CNN
	1    7400 4650
	1    0    0    -1  
$EndComp
Wire Wire Line
	6000 5350 5750 5350
Wire Wire Line
	6100 4000 6100 4200
Wire Wire Line
	7200 4950 7200 5150
$Comp
L power:PWR_FLAG #FLG01
U 1 1 5E44CFB5
P 5850 4250
F 0 "#FLG01" H 5850 4325 50  0001 C CNN
F 1 "PWR_FLAG" V 5850 4377 50  0000 L CNN
F 2 "" H 5850 4250 50  0001 C CNN
F 3 "~" H 5850 4250 50  0001 C CNN
	1    5850 4250
	0    -1   -1   0   
$EndComp
$Comp
L power:PWR_FLAG #FLG02
U 1 1 5E44D888
P 5850 4350
F 0 "#FLG02" H 5850 4425 50  0001 C CNN
F 1 "PWR_FLAG" V 5850 4477 50  0000 L CNN
F 2 "" H 5850 4350 50  0001 C CNN
F 3 "~" H 5850 4350 50  0001 C CNN
	1    5850 4350
	0    -1   -1   0   
$EndComp
Connection ~ 6100 4200
Wire Wire Line
	6000 4000 6000 4250
Wire Wire Line
	5850 4250 6000 4250
Wire Wire Line
	6100 4350 5850 4350
Wire Wire Line
	6100 4200 6100 4350
$Comp
L Diode:1N4007 D9
U 1 1 5E517CC6
P 6800 4650
F 0 "D9" V 6800 4500 50  0000 L CNN
F 1 "1N4007" V 6900 4350 50  0000 L CNN
F 2 "Diode_THT:D_DO-35_SOD27_P10.16mm_Horizontal" H 6800 4475 50  0001 C CNN
F 3 "http://www.vishay.com/docs/88503/1n4001.pdf" H 6800 4650 50  0001 C CNN
	1    6800 4650
	0    1    1    0   
$EndComp
Wire Wire Line
	5750 5150 6350 5150
Wire Wire Line
	6100 4200 6350 4200
Wire Wire Line
	6800 4500 6800 4200
Wire Wire Line
	6800 4800 6800 5150
Wire Wire Line
	6800 5150 7200 5150
Wire Wire Line
	6800 4200 7200 4200
Wire Wire Line
	7200 4200 7200 4350
Connection ~ 6800 4200
$Comp
L Device:R R15
U 1 1 5E5F2719
P 6350 4450
F 0 "R15" H 6420 4496 50  0000 L CNN
F 1 "1.5k" H 6420 4405 50  0000 L CNN
F 2 "My_Resistor:R_Axial_DIN0204_L3.6mm_D1.6mm_P10.16mm_Horizontal" V 6280 4450 50  0001 C CNN
F 3 "~" H 6350 4450 50  0001 C CNN
	1    6350 4450
	1    0    0    -1  
$EndComp
$Comp
L Device:LED D7
U 1 1 5E5F3248
P 6350 4800
F 0 "D7" V 6350 4950 50  0000 R CNN
F 1 "Red" V 6250 5000 50  0000 R CNN
F 2 "LED_THT:LED_D5.0mm_Horizontal_O3.81mm_Z9.0mm" H 6350 4800 50  0001 C CNN
F 3 "~" H 6350 4800 50  0001 C CNN
	1    6350 4800
	0    -1   -1   0   
$EndComp
Wire Wire Line
	6350 4300 6350 4200
Connection ~ 6350 4200
Wire Wire Line
	6350 4200 6800 4200
Wire Wire Line
	6350 4600 6350 4650
Wire Wire Line
	6350 4950 6350 5150
Text Notes 7850 6450 0    50   ~ 0
Pump relay
Text GLabel 3100 1850 2    50   Output ~ 0
Led_green
Text GLabel 3100 1950 2    50   Output ~ 0
Led_yellow
Wire Wire Line
	2950 2250 3100 2250
Wire Wire Line
	2950 2450 3100 2450
$Comp
L Device:LED D5
U 1 1 5E86B9E6
P 5200 7050
F 0 "D5" H 5200 7150 50  0000 C CNN
F 1 "Green" H 5250 6950 50  0000 C CNN
F 2 "LED_THT:LED_D5.0mm" H 5200 7050 50  0001 C CNN
F 3 "~" H 5200 7050 50  0001 C CNN
	1    5200 7050
	1    0    0    -1  
$EndComp
$Comp
L Device:LED D6
U 1 1 5E86DB66
P 5200 7500
F 0 "D6" H 5200 7600 50  0000 C CNN
F 1 "Yellow" H 5250 7400 50  0000 C CNN
F 2 "LED_THT:LED_D5.0mm" H 5200 7500 50  0001 C CNN
F 3 "~" H 5200 7500 50  0001 C CNN
	1    5200 7500
	1    0    0    -1  
$EndComp
$Comp
L Device:R R12
U 1 1 5E86E9A7
P 5700 7050
F 0 "R12" V 5800 7050 50  0000 C CNN
F 1 "470" V 5700 7050 50  0000 C CNN
F 2 "My_Resistor:R_Axial_DIN0204_L3.6mm_D1.6mm_P10.16mm_Horizontal" V 5630 7050 50  0001 C CNN
F 3 "~" H 5700 7050 50  0001 C CNN
	1    5700 7050
	0    -1   -1   0   
$EndComp
$Comp
L Device:R R13
U 1 1 5E86F58A
P 5700 7500
F 0 "R13" V 5800 7500 50  0000 C CNN
F 1 "470" V 5700 7500 50  0000 C CNN
F 2 "My_Resistor:R_Axial_DIN0204_L3.6mm_D1.6mm_P10.16mm_Horizontal" V 5630 7500 50  0001 C CNN
F 3 "~" H 5700 7500 50  0001 C CNN
	1    5700 7500
	0    -1   -1   0   
$EndComp
$Comp
L power:+3.3V #PWR023
U 1 1 5E870E74
P 6250 6850
F 0 "#PWR023" H 6250 6700 50  0001 C CNN
F 1 "+3.3V" H 6265 7023 50  0000 C CNN
F 2 "" H 6250 6850 50  0001 C CNN
F 3 "" H 6250 6850 50  0001 C CNN
	1    6250 6850
	1    0    0    -1  
$EndComp
Wire Wire Line
	6250 6850 6250 7050
Wire Wire Line
	6250 7500 5850 7500
Wire Wire Line
	5850 7050 6250 7050
Connection ~ 6250 7050
Wire Wire Line
	6250 7050 6250 7500
Wire Wire Line
	5350 7050 5550 7050
Wire Wire Line
	5350 7500 5550 7500
Text GLabel 4700 7050 0    50   Input ~ 0
Led_green
Text GLabel 4700 7500 0    50   Input ~ 0
Led_yellow
Wire Wire Line
	4700 7050 5050 7050
Wire Wire Line
	5050 7500 4700 7500
Wire Notes Line
	3800 6500 11250 6500
Text Notes 6700 7750 0    50   ~ 0
Leds
Connection ~ 6350 5150
Connection ~ 6800 5150
Wire Wire Line
	6350 5150 6550 5150
$Comp
L Switch:SW_Push SW2
U 1 1 5E1F877E
P 7200 5450
F 0 "SW2" V 7154 5598 50  0000 L CNN
F 1 "Pump" V 7245 5598 50  0000 L CNN
F 2 "Connector_PinHeader_2.54mm:PinHeader_1x02_P2.54mm_Vertical" H 7200 5650 50  0001 C CNN
F 3 "~" H 7200 5650 50  0001 C CNN
	1    7200 5450
	0    1    1    0   
$EndComp
Wire Wire Line
	6000 5350 6000 5700
Wire Wire Line
	6000 5700 6550 5700
Wire Wire Line
	7200 5700 7200 5650
Wire Wire Line
	7200 5250 7200 5150
Connection ~ 7200 5150
$Comp
L Device:Polyfuse F3
U 1 1 5E2DAB46
P 10350 4850
F 0 "F3" H 10438 4896 50  0000 L CNN
F 1 "0.5A" H 10438 4805 50  0000 L CNN
F 2 "Fuse:Fuse_Littelfuse_395Series" H 10400 4650 50  0001 L CNN
F 3 "~" H 10350 4850 50  0001 C CNN
	1    10350 4850
	1    0    0    -1  
$EndComp
$Comp
L Device:Fuse F2
U 1 1 5E2DB2D4
P 9300 4650
F 0 "F2" V 9200 4650 50  0000 C CNN
F 1 "1.5A" V 9400 4650 50  0000 C CNN
F 2 "My_Fuse:Free_Holding_Fuse" V 9230 4650 50  0001 C CNN
F 3 "~" H 9300 4650 50  0001 C CNN
	1    9300 4650
	0    1    1    0   
$EndComp
Wire Wire Line
	9950 4650 9800 4650
Connection ~ 9950 4650
Wire Wire Line
	10350 4700 10350 4450
Connection ~ 10350 4200
Wire Wire Line
	10350 5000 10350 5500
$Comp
L power:PWR_FLAG #FLG06
U 1 1 5E36ECDC
P 9850 4200
F 0 "#FLG06" H 9850 4275 50  0001 C CNN
F 1 "PWR_FLAG" V 9850 4328 50  0000 L CNN
F 2 "" H 9850 4200 50  0001 C CNN
F 3 "~" H 9850 4200 50  0001 C CNN
	1    9850 4200
	0    -1   -1   0   
$EndComp
Wire Wire Line
	9950 4200 9850 4200
Connection ~ 9950 4200
Wire Wire Line
	9950 4200 9950 4000
Connection ~ 8750 2100
$Comp
L Device:C C10
U 1 1 5E27033F
P 10500 1950
F 0 "C10" H 10615 2041 50  0000 L CNN
F 1 "100n" H 10615 1950 50  0000 L CNN
F 2 "Capacitor_THT:C_Disc_D4.3mm_W1.9mm_P5.00mm" H 10538 1800 50  0001 C CNN
F 3 "~" H 10500 1950 50  0001 C CNN
F 4 "Place next to Pin 8&5" H 10250 2200 50  0000 L CNN "Place_hint"
	1    10500 1950
	1    0    0    -1  
$EndComp
Wire Wire Line
	6100 1700 6100 2100
Wire Wire Line
	6200 2300 6400 2300
Wire Wire Line
	9900 1600 9900 1750
Wire Wire Line
	10100 1800 10100 1750
Wire Wire Line
	10100 1750 9900 1750
Connection ~ 9900 1750
Wire Wire Line
	9900 1750 9900 2000
Wire Wire Line
	10100 1750 10500 1750
Wire Wire Line
	10500 1750 10500 1800
Connection ~ 10100 1750
$Comp
L My_Isolator:HCPL2300 U6
U 1 1 5E2211A4
P 6850 2200
F 0 "U6" H 6850 2500 50  0000 C CNN
F 1 "HCPL2300" H 6850 1900 50  0000 C CNN
F 2 "Package_DIP:DIP-8_W7.62mm" H 6850 1800 50  0001 C CNN
F 3 "https://www.broadcom.com/products/optocouplers/industrial-plastic/digital-optocouplers/8mbd/hcpl-2300" H 6900 2200 50  0001 C CNN
	1    6850 2200
	1    0    0    -1  
$EndComp
$Comp
L My_Isolator:HCPL2300 U7
U 1 1 5E223708
P 9300 2200
F 0 "U7" H 9300 2500 50  0000 C CNN
F 1 "HCPL2300" H 9300 1900 50  0000 C CNN
F 2 "Package_DIP:DIP-8_W7.62mm" H 9300 1800 50  0001 C CNN
F 3 "https://www.broadcom.com/products/optocouplers/industrial-plastic/digital-optocouplers/8mbd/hcpl-2300" H 9350 2200 50  0001 C CNN
	1    9300 2200
	1    0    0    -1  
$EndComp
Wire Wire Line
	6100 2100 6400 2100
Wire Wire Line
	7300 2100 7450 2100
Wire Wire Line
	7450 2100 7450 2200
Wire Wire Line
	7300 2400 7550 2400
Wire Wire Line
	7400 1450 7400 2000
Wire Wire Line
	8750 2100 8850 2100
Wire Wire Line
	8200 2100 8200 2300
Wire Wire Line
	8200 2300 8850 2300
Connection ~ 8200 2100
Wire Wire Line
	9750 2000 9900 2000
Wire Wire Line
	10500 2100 10500 2400
Wire Wire Line
	10500 2400 9950 2400
Wire Wire Line
	9950 2700 9950 2400
Connection ~ 9950 2400
Wire Wire Line
	9950 2400 9750 2400
NoConn ~ 9750 2100
Wire Wire Line
	9750 2200 10100 2200
Wire Wire Line
	10100 2100 10100 2200
Connection ~ 10100 2200
Wire Wire Line
	10100 2200 10750 2200
Wire Wire Line
	7300 2200 7450 2200
Wire Wire Line
	7400 2000 7300 2000
$Comp
L My_Isolator:SFH610-3 U1
U 1 1 5E223C05
P 1800 3850
F 0 "U1" H 1800 4175 50  0000 C CNN
F 1 "SFH610-3" H 1800 4084 50  0000 C CNN
F 2 "Package_DIP:DIP-4_W7.62mm" H 1300 3550 50  0001 L CIN
F 3 "http://pdf.datasheet.live/6c7f7772/siemens.de/SFH610.pdf" H 1800 3850 50  0001 L CNN
	1    1800 3850
	-1   0    0    -1  
$EndComp
$Comp
L My_Isolator:SFH610-3 U2
U 1 1 5E2249EA
P 1800 5350
F 0 "U2" H 1800 5675 50  0000 C CNN
F 1 "SFH610-3" H 1800 5584 50  0000 C CNN
F 2 "Package_DIP:DIP-4_W7.62mm" H 1300 5050 50  0001 L CIN
F 3 "http://pdf.datasheet.live/6c7f7772/siemens.de/SFH610.pdf" H 1800 5350 50  0001 L CNN
	1    1800 5350
	-1   0    0    -1  
$EndComp
$Comp
L My_Isolator:SFH610-3 U3
U 1 1 5E22543E
P 1800 6850
F 0 "U3" H 1800 7175 50  0000 C CNN
F 1 "SFH610-3" H 1800 7084 50  0000 C CNN
F 2 "Package_DIP:DIP-4_W7.62mm" H 1300 6550 50  0001 L CIN
F 3 "http://pdf.datasheet.live/6c7f7772/siemens.de/SFH610.pdf" H 1800 6850 50  0001 L CNN
	1    1800 6850
	-1   0    0    -1  
$EndComp
$Comp
L My_Isolator:SFH610-3 U5
U 1 1 5E225EAB
P 5450 5250
F 0 "U5" H 5450 5575 50  0000 C CNN
F 1 "SFH610-3" H 5450 5484 50  0000 C CNN
F 2 "Package_DIP:DIP-4_W7.62mm" H 4950 4950 50  0001 L CIN
F 3 "http://pdf.datasheet.live/6c7f7772/siemens.de/SFH610.pdf" H 5450 5250 50  0001 L CNN
	1    5450 5250
	1    0    0    -1  
$EndComp
$Comp
L Connector:Conn_01x04_Male Water1
U 1 1 5E420E36
P 3450 3850
F 0 "Water1" H 3550 4100 50  0000 C CNN
F 1 "XKC-Y25-V" H 3550 3550 50  0000 C CNN
F 2 "Connector_JST:JST_XH_S4B-XH-A_1x04_P2.50mm_Horizontal" H 3450 3850 50  0001 C CNN
F 3 "~" H 3450 3850 50  0001 C CNN
F 4 "VCC" H 3300 3950 50  0000 C CNN "Pin1"
F 5 "OUT" H 3300 3850 50  0000 C CNN "Pin2"
F 6 "GND" H 3300 3750 50  0000 C CNN "Pin3"
F 7 "Mode" H 3300 3650 50  0000 C CNN "Pin4"
	1    3450 3850
	-1   0    0    -1  
$EndComp
$Comp
L Connector_Generic:Conn_01x03 J3
U 1 1 5E38960B
P 8700 4650
F 0 "J3" H 8700 4450 50  0000 C CNN
F 1 "5V Supply" H 8700 4850 50  0000 C CNN
F 2 "Connector_PinHeader_2.54mm:PinHeader_1x03_P2.54mm_Vertical" H 8700 4650 50  0001 C CNN
F 3 "~" H 8700 4650 50  0001 C CNN
F 4 "GND" H 8850 4750 50  0000 C CNN "Pin1"
F 5 "+5V" H 8850 4650 50  0000 C CNN "Pin2"
F 6 "NC" H 8850 4550 50  0000 C CNN "Pin3"
	1    8700 4650
	-1   0    0    1   
$EndComp
Wire Wire Line
	8900 4650 9150 4650
Wire Wire Line
	8900 4750 9150 4750
Wire Wire Line
	9150 4750 9150 5200
NoConn ~ 8900 4550
$Comp
L Connector_Generic:Conn_01x03 J1
U 1 1 5E3D3D0B
P 6100 3800
F 0 "J1" V 6150 3550 50  0000 C CNN
F 1 "12V Supply" V 6050 3400 50  0000 C CNN
F 2 "Connector_PinHeader_2.54mm:PinHeader_1x03_P2.54mm_Vertical" H 6100 3800 50  0001 C CNN
F 3 "~" H 6100 3800 50  0001 C CNN
F 4 "GND" H 6250 3900 50  0000 C CNN "Pin1"
F 5 "+12V" H 6250 3800 50  0000 C CNN "Pin2"
F 6 "NC" H 6250 3700 50  0000 C CNN "Pin3"
	1    6100 3800
	0    -1   -1   0   
$EndComp
NoConn ~ 6200 4000
$Comp
L power:PWR_FLAG #FLG05
U 1 1 5E44A2EC
P 9050 5200
F 0 "#FLG05" H 9050 5275 50  0001 C CNN
F 1 "PWR_FLAG" V 9050 5327 50  0000 L CNN
F 2 "" H 9050 5200 50  0001 C CNN
F 3 "~" H 9050 5200 50  0001 C CNN
	1    9050 5200
	0    -1   -1   0   
$EndComp
Wire Wire Line
	9050 5200 9150 5200
Connection ~ 9150 5200
Wire Wire Line
	9150 5200 9150 5300
Wire Wire Line
	9800 4800 9800 4650
Connection ~ 9800 4650
Wire Wire Line
	9800 4650 9550 4650
Wire Wire Line
	9800 5100 9800 5300
Connection ~ 9800 5300
Wire Wire Line
	9800 5300 10250 5300
Wire Wire Line
	10800 5000 10800 5200
Wire Wire Line
	10800 5200 10250 5200
Wire Wire Line
	10250 5200 10250 5300
Connection ~ 10250 5300
Wire Wire Line
	10800 4700 10800 4450
Wire Wire Line
	10800 4450 10350 4450
Connection ~ 10350 4450
Wire Wire Line
	10350 4450 10350 4200
$Comp
L Device:CP C11
U 1 1 5E526EFE
P 10800 4850
F 0 "C11" H 10918 4896 50  0000 L CNN
F 1 "100u" H 10918 4805 50  0000 L CNN
F 2 "Capacitor_THT:CP_Radial_D8.0mm_P5.00mm" H 10838 4700 50  0001 C CNN
F 3 "~" H 10800 4850 50  0001 C CNN
	1    10800 4850
	1    0    0    -1  
$EndComp
$Comp
L Device:CP C9
U 1 1 5E527482
P 9800 4950
F 0 "C9" H 9918 4996 50  0000 L CNN
F 1 "100u" H 9918 4905 50  0000 L CNN
F 2 "Capacitor_THT:CP_Radial_D8.0mm_P5.00mm" H 9838 4800 50  0001 C CNN
F 3 "~" H 9800 4950 50  0001 C CNN
	1    9800 4950
	1    0    0    -1  
$EndComp
Wire Wire Line
	7550 2400 8100 2400
Wire Wire Line
	8000 1000 8000 2200
Wire Wire Line
	8000 2200 7450 2200
Connection ~ 7450 2200
Wire Wire Line
	7400 1250 8100 1250
Wire Wire Line
	8100 2400 8100 1250
Wire Wire Line
	8100 1250 8100 1000
Connection ~ 8100 1250
$Comp
L Diode:1N4007 D11
U 1 1 5E3439A3
P 9550 4950
F 0 "D11" V 9550 4750 50  0000 L CNN
F 1 "1N4007" V 9650 4650 50  0000 L CNN
F 2 "Diode_THT:D_DO-35_SOD27_P10.16mm_Horizontal" H 9550 4775 50  0001 C CNN
F 3 "http://www.vishay.com/docs/88503/1n4001.pdf" H 9550 4950 50  0001 C CNN
	1    9550 4950
	0    1    1    0   
$EndComp
Wire Wire Line
	9550 4800 9550 4650
Connection ~ 9550 4650
Wire Wire Line
	9550 4650 9450 4650
Wire Wire Line
	9550 5100 9550 5300
Connection ~ 9550 5300
Wire Wire Line
	9550 5300 9800 5300
$Comp
L Diode:1N4007 D8
U 1 1 5E36D454
P 6550 5400
F 0 "D8" V 6550 5200 50  0000 L CNN
F 1 "1N4007" V 6650 5100 50  0000 L CNN
F 2 "Diode_THT:D_DO-35_SOD27_P10.16mm_Horizontal" H 6550 5225 50  0001 C CNN
F 3 "http://www.vishay.com/docs/88503/1n4001.pdf" H 6550 5400 50  0001 C CNN
	1    6550 5400
	0    1    1    0   
$EndComp
Wire Wire Line
	6550 5250 6550 5150
Connection ~ 6550 5150
Wire Wire Line
	6550 5150 6800 5150
Wire Wire Line
	6550 5550 6550 5700
Connection ~ 6550 5700
Wire Wire Line
	6550 5700 7200 5700
$Comp
L Device:Polyfuse F1
U 1 1 5E3969FD
P 6000 4700
F 0 "F1" H 5800 4750 50  0000 L CNN
F 1 "50mA" H 5750 4650 50  0000 L CNN
F 2 "Fuse:Fuse_Littelfuse_395Series" H 6050 4500 50  0001 L CNN
F 3 "~" H 6000 4700 50  0001 C CNN
	1    6000 4700
	1    0    0    -1  
$EndComp
Wire Wire Line
	6000 4550 6000 4250
Connection ~ 6000 4250
Wire Wire Line
	6000 4850 6000 5350
Connection ~ 6000 5350
$Comp
L Transistor_BJT:BC547 Q1
U 1 1 5E3ED04D
P 4950 5700
F 0 "Q1" H 5141 5746 50  0000 L CNN
F 1 "BC547" H 5141 5655 50  0000 L CNN
F 2 "Package_TO_SOT_THT:TO-92_Inline_Wide" H 5150 5625 50  0001 L CIN
F 3 "http://www.fairchildsemi.com/ds/BC/BC547.pdf" H 4950 5700 50  0001 L CNN
	1    4950 5700
	1    0    0    -1  
$EndComp
Wire Wire Line
	5050 6200 5050 6150
Wire Wire Line
	5050 5500 5050 5350
Wire Wire Line
	5050 5350 5150 5350
Wire Wire Line
	4600 5700 4700 5700
$Comp
L Device:R R18
U 1 1 5EA5F10A
P 4700 5950
F 0 "R18" H 4770 5996 50  0000 L CNN
F 1 "10k" H 4770 5905 50  0000 L CNN
F 2 "My_Resistor:R_Axial_DIN0204_L3.6mm_D1.6mm_P10.16mm_Horizontal" V 4630 5950 50  0001 C CNN
F 3 "~" H 4700 5950 50  0001 C CNN
	1    4700 5950
	1    0    0    -1  
$EndComp
Wire Wire Line
	4700 5800 4700 5700
Connection ~ 4700 5700
Wire Wire Line
	4700 5700 4750 5700
Wire Wire Line
	4700 6100 4700 6150
Wire Wire Line
	4700 6150 5050 6150
Connection ~ 5050 6150
Wire Wire Line
	5050 6150 5050 5900
$EndSCHEMATC
